%!PS-Adobe-3.0 EPSF-3.0
%%Creator: cairo 1.14.1 (http://cairographics.org)
%%CreationDate: Fri Mar 18 17:09:32 2016
%%Pages: 1
%%DocumentData: Clean7Bit
%%LanguageLevel: 2
%%BoundingBox: 8 6 770 272
%%EndComments
%%BeginProlog
save
50 dict begin
/q { gsave } bind def
/Q { grestore } bind def
/cm { 6 array astore concat } bind def
/w { setlinewidth } bind def
/J { setlinecap } bind def
/j { setlinejoin } bind def
/M { setmiterlimit } bind def
/d { setdash } bind def
/m { moveto } bind def
/l { lineto } bind def
/c { curveto } bind def
/h { closepath } bind def
/re { exch dup neg 3 1 roll 5 3 roll moveto 0 rlineto
      0 exch rlineto 0 rlineto closepath } bind def
/S { stroke } bind def
/f { fill } bind def
/f* { eofill } bind def
/n { newpath } bind def
/W { clip } bind def
/W* { eoclip } bind def
/BT { } bind def
/ET { } bind def
/pdfmark where { pop globaldict /?pdfmark /exec load put }
    { globaldict begin /?pdfmark /pop load def /pdfmark
    /cleartomark load def end } ifelse
/BDC { mark 3 1 roll /BDC pdfmark } bind def
/EMC { mark /EMC pdfmark } bind def
/cairo_store_point { /cairo_point_y exch def /cairo_point_x exch def } def
/Tj { show currentpoint cairo_store_point } bind def
/TJ {
  {
    dup
    type /stringtype eq
    { show } { -0.001 mul 0 cairo_font_matrix dtransform rmoveto } ifelse
  } forall
  currentpoint cairo_store_point
} bind def
/cairo_selectfont { cairo_font_matrix aload pop pop pop 0 0 6 array astore
    cairo_font exch selectfont cairo_point_x cairo_point_y moveto } bind def
/Tf { pop /cairo_font exch def /cairo_font_matrix where
      { pop cairo_selectfont } if } bind def
/Td { matrix translate cairo_font_matrix matrix concatmatrix dup
      /cairo_font_matrix exch def dup 4 get exch 5 get cairo_store_point
      /cairo_font where { pop cairo_selectfont } if } bind def
/Tm { 2 copy 8 2 roll 6 array astore /cairo_font_matrix exch def
      cairo_store_point /cairo_font where { pop cairo_selectfont } if } bind def
/g { setgray } bind def
/rg { setrgbcolor } bind def
/d1 { setcachedevice } bind def
%%EndProlog
%%BeginSetup
%%EndSetup
%%Page: 1 1
%%BeginPageSetup
%%PageBoundingBox: 8 6 770 272
%%EndPageSetup
q 8 6 762 266 rectclip q
Q q
8 271.498 761.434 -264.535 re W n
q
8 271.6 762 -265 re W n
[ 1 0 0 1 0 -0.399994 ] concat
  q
0.929412 0.109804 0.141176 rg
58.797 78.961 m 58.758 78.848 l 60.234 78.367 l 60.441 78.961 l 58.797 
78.961 l f*
103.66 78.961 m 178.426 78.961 l 178.43 200.82 l 166.852 200.145 139.406
 204.516 121.668 224.941 c 121.289 221.82 103.652 78.965 103.66 78.961 c
 f*
60.441 78.961 m 60.641 78.961 102.102 78.941 102.102 78.961 c 102.25 80.617
 120.496 228.805 120.496 228.805 c 121.734 227.363 135.734 208.012 165.105
 203.207 c 146.234 209.93 125.645 228.598 117.957 249.875 c 117.203 247.469
 60.441 78.961 60.441 78.961 c f*
58.797 78.961 m 57.949 78.961 8 78.969 8 78.969 c 8.313 79.477 124.477 
270.137 124.477 270.137 c 124.355 242.688 141.328 225.973 142.664 224.07
 c 144.234 222.73 152.957 211.578 173.988 202.594 c 168.742 203.621 155.223
 205.5 136.816 224.094 c 131.004 229.719 121.559 241.207 117.965 254.875
 c 116.684 251.215 58.797 78.961 58.797 78.961 c f*
102.105 78.961 m 103.66 78.957 l 103.582 78.246 l 102.027 78.316 l 102.105
 78.961 l f*
Q q
8 270.137 760 -262.773 re W n
q
8 271 760 -264 re W n
[ 1 0 0 1 0 0 ] concat
  q
0.929412 0.109804 0.141176 rg
0.87 w
0 J
0 j
[] 0.0 d
3.864 M q 1 0 0 1 0 278 cm
177.707 -77.719 m 209.422 -195.191 l 46.703 -237.207 l 59.527 -199.301 
l 177.738 -77.559 m 234.77 -186.344 l 94.227 -269.164 l 102.816 -199.625
 l S Q
  Q
Q
0.137255 0.121569 0.12549 rg
289.852 198.668 m 265.816 198.668 l 265.816 194.539 l 275.109 194.539 l
 275.109 163.109 l 280.039 163.109 l 280.039 194.539 l 289.332 194.539 l
 289.852 198.668 l f*
305.832 178.539 m 295.035 178.539 l 295.035 180.914 295.488 182.773 296.398
 184.121 c 297.309 185.469 298.668 186.156 300.488 186.18 c 301.32 186.168
 302.043 185.996 302.668 185.664 c 303.293 185.328 303.809 184.898 304.227
 184.371 c 304.746 183.719 305.145 182.895 305.418 181.902 c 305.695 180.906
 305.832 179.789 305.832 178.539 c h
310.82 175.031 m 310.82 175.859 l 310.805 178.773 310.559 181.082 310.07
 182.785 c 309.586 184.488 308.781 185.895 307.652 187.004 c 305.844 188.863
 303.492 189.789 300.59 189.789 c 298.984 189.793 297.535 189.504 296.246
 188.922 c 294.949 188.336 293.785 187.441 292.75 186.23 c 291.645 184.941
 290.848 183.504 290.359 181.922 c 289.867 180.336 289.629 178.434 289.637
 176.219 c 289.672 171.945 290.707 168.609 292.746 166.207 c 294.785 163.805
 297.625 162.582 301.266 162.543 c 302.957 162.543 304.559 162.813 306.066
 163.363 c 307.578 163.91 308.973 164.734 310.246 165.844 c 308.43 168.684
 l 307.5 167.855 306.508 167.238 305.453 166.824 c 304.398 166.414 303.262
 166.207 302.043 166.207 c 300.789 166.203 299.652 166.453 298.633 166.953
 c 297.609 167.453 296.758 168.223 296.074 169.25 c 295.688 169.871 295.41
 170.605 295.238 171.465 c 295.066 172.32 294.98 173.305 294.984 174.41 
c 294.984 175.031 l 310.82 175.031 l f*
335.164 165.949 m 332.828 168.891 l 332.039 168.012 331.188 167.344 330.266
 166.891 c 329.34 166.438 328.395 166.211 327.426 166.207 c 326.672 166.211
 325.977 166.344 325.344 166.613 c 324.711 166.883 324.16 167.262 323.691
 167.754 c 323.016 168.469 322.496 169.438 322.145 170.656 c 321.793 171.875
 321.613 173.387 321.613 175.184 c 321.609 176.965 321.707 178.504 321.906
 179.813 c 322.105 181.117 322.422 182.207 322.859 183.082 c 323.313 183.969
 323.938 184.648 324.734 185.133 c 325.531 185.617 326.43 185.863 327.426
 185.871 c 328.238 185.879 328.992 185.73 329.695 185.422 c 330.395 185.117
 331.16 184.594 331.996 183.855 c 334.488 187.105 l 333.508 188.012 332.434
 188.695 331.27 189.152 c 330.105 189.613 328.824 189.844 327.426 189.844
 c 326.156 189.84 324.953 189.613 323.82 189.164 c 322.688 188.719 321.641
 188.066 320.68 187.211 c 319.406 186.129 318.371 184.68 317.566 182.863
 c 316.762 181.047 316.344 178.691 316.32 175.805 c 316.316 173.852 316.516
 172.109 316.922 170.574 c 317.328 169.039 317.957 167.668 318.809 166.465
 c 320.637 163.883 323.422 162.594 327.168 162.594 c 328.801 162.582 330.234
 162.84 331.477 163.363 c 332.719 163.887 333.949 164.746 335.164 165.949
 c f*
360.699 163.109 m 360.699 181.535 l 360.707 182.648 360.672 183.488 360.598
 184.051 c 360.523 184.609 360.383 185.168 360.184 185.715 c 359.762 186.895
 358.957 187.824 357.766 188.52 c 356.578 189.215 355.203 189.57 353.641
 189.586 c 352.684 189.59 351.742 189.449 350.809 189.172 c 349.879 188.895
 348.938 188.445 347.98 187.832 c 347.484 187.512 347.039 187.207 346.645
 186.91 c 346.25 186.609 345.781 186.211 345.23 185.715 c 345.281 186.391
 345.32 187.016 345.348 187.598 c 345.371 188.18 345.387 188.707 345.387
 189.172 c 345.387 194.953 l 345.383 196.211 345.336 197.332 345.234 198.313
 c 345.141 199.297 344.996 200.168 344.816 200.938 c 339.984 199.957 l 340.168
 199.219 340.309 198.402 340.41 197.52 c 340.508 196.637 340.555 195.641
 340.559 194.539 c 340.559 163.109 l 345.387 163.109 l 345.387 181.688 l
 346.418 182.863 347.543 183.781 348.762 184.445 c 349.977 185.105 351.152
 185.441 352.293 185.457 c 352.926 185.449 353.5 185.348 354.012 185.16 
c 354.52 184.973 354.898 184.742 355.145 184.473 c 355.41 184.191 355.621
 183.742 355.781 183.133 c 355.941 182.523 356.023 181.77 356.027 180.863
 c 356.027 163.109 l 360.699 163.109 l f*
389.164 163.109 m 389.164 182.668 l 389.164 183.266 389.113 183.84 389.008
 184.391 c 388.902 184.941 388.746 185.453 388.539 185.922 c 388.051 187.043
 387.254 187.93 386.16 188.586 c 385.063 189.238 383.816 189.57 382.414 
189.586 c 381.605 189.586 380.785 189.48 379.965 189.27 c 379.141 189.059
 378.344 188.73 377.586 188.293 c 377.063 187.996 376.551 187.652 376.055
 187.262 c 375.559 186.875 374.945 186.375 374.211 185.766 c 374.215 186.555
 374.145 187.262 374.004 187.887 c 373.863 188.516 373.641 189.133 373.328
 189.738 c 368.813 188.5 l 369.172 187.625 369.43 186.758 369.578 185.895
 c 369.73 185.031 369.805 183.855 369.801 182.359 c 369.801 163.109 l 374.523
 163.109 l 374.523 182.258 l 375.449 183.207 376.508 183.988 377.703 184.605
 c 378.898 185.219 379.984 185.539 380.961 185.559 c 381.563 185.559 382.09
 185.469 382.535 185.297 c 382.988 185.121 383.348 184.863 383.609 184.527
 c 383.914 184.145 384.133 183.672 384.258 183.102 c 384.383 182.535 384.445
 181.684 384.438 180.555 c 384.438 163.109 l 389.164 163.109 l f*
404.148 196.914 m 404.121 197.914 403.781 198.738 403.133 199.379 c 402.484
 200.02 401.68 200.352 400.719 200.371 c 399.762 200.348 398.965 200.008
 398.332 199.359 c 397.695 198.707 397.367 197.895 397.344 196.914 c 397.363
 195.957 397.688 195.156 398.305 194.512 c 398.922 193.871 399.711 193.531
 400.668 193.508 c 401.652 193.531 402.473 193.871 403.129 194.512 c 403.781
 195.156 404.121 195.957 404.148 196.914 c h
403.156 163.109 m 403.156 189.586 l 398.227 188.813 l 398.227 163.109 l
 403.156 163.109 l f*
434.184 163.109 m 422.605 178.023 l 431.895 189.016 l 426.082 189.016 l
 417.516 177.816 l 428.211 163.109 l h
416.996 163.109 m 416.996 195.313 l 416.992 196.391 416.926 197.426 416.805
 198.422 c 416.68 199.422 416.535 200.277 416.375 200.992 c 411.543 199.855
 l 411.758 199.121 411.922 198.281 412.039 197.34 c 412.156 196.398 412.219
 195.273 412.219 193.973 c 412.219 163.109 l 416.996 163.109 l f*
470.426 164.813 m 469.906 165.254 469.504 165.934 469.23 166.84 c 468.957
 167.746 468.816 168.859 468.816 170.18 c 468.816 189.637 l 464.094 188.707
 l 464.094 170.129 l 463.516 168.965 462.684 168 461.598 167.238 c 460.516
 166.477 459.375 166.082 458.172 166.051 c 457.59 166.059 457.031 166.172
 456.492 166.387 c 455.953 166.602 455.512 166.867 455.164 167.188 c 454.703
 167.594 454.387 168.133 454.215 168.801 c 454.043 169.465 453.961 170.441
 453.969 171.73 c 453.969 189.738 l 449.242 188.813 l 449.242 170.438 l 
449.242 169.508 449.289 168.684 449.379 167.961 c 449.473 167.238 449.637
 166.621 449.867 166.102 c 450.43 164.902 451.316 163.961 452.535 163.277
 c 453.75 162.594 455.195 162.246 456.875 162.23 c 458.48 162.227 459.93
 162.531 461.223 163.141 c 462.516 163.75 463.68 164.688 464.715 165.949
 c 464.941 165.086 465.242 164.371 465.621 163.801 c 466.004 163.23 466.512
 162.707 467.156 162.23 c 470.426 164.813 l f*
496.879 163.109 m 496.879 182.668 l 496.879 183.266 496.828 183.84 496.727
 184.391 c 496.621 184.941 496.465 185.453 496.258 185.922 c 495.766 187.043
 494.969 187.93 493.875 188.586 c 492.781 189.238 491.531 189.57 490.129
 189.586 c 489.32 189.586 488.5 189.48 487.676 189.27 c 486.852 189.059 
486.063 188.73 485.301 188.293 c 484.777 187.996 484.27 187.652 483.773 
187.262 c 483.273 186.875 482.66 186.375 481.926 185.766 c 481.93 186.555
 481.859 187.262 481.719 187.887 c 481.582 188.516 481.355 189.133 481.047
 189.738 c 476.531 188.5 l 476.887 187.625 477.145 186.758 477.297 185.895
 c 477.445 185.031 477.52 183.855 477.516 182.359 c 477.516 163.109 l 482.238
 163.109 l 482.238 182.258 l 483.164 183.207 484.223 183.988 485.422 184.605
 c 486.617 185.219 487.699 185.539 488.68 185.559 c 489.277 185.559 489.805
 185.469 490.254 185.297 c 490.707 185.121 491.063 184.863 491.324 184.527
 c 491.633 184.145 491.848 183.672 491.973 183.102 c 492.098 182.535 492.16
 181.684 492.156 180.555 c 492.156 163.109 l 496.879 163.109 l f*
521.102 169.664 m 520.66 168.863 519.977 168.168 519.051 167.586 c 518.129
 167.004 516.977 166.699 515.598 166.672 c 514.723 166.668 513.969 166.777
 513.348 166.992 c 512.723 167.211 512.195 167.551 511.758 168.012 c 511.059
 168.66 510.547 169.52 510.219 170.602 c 509.891 171.68 509.73 173.43 509.73
 175.859 c 509.727 177.516 509.828 178.91 510.039 180.035 c 510.246 181.168
 510.594 182.145 511.082 182.977 c 511.578 183.813 512.207 184.457 512.973
 184.914 c 513.734 185.375 514.609 185.605 515.598 185.613 c 516.809 185.613
 517.863 185.406 518.758 185 c 519.652 184.59 520.434 183.988 521.102 183.188
 c h
526.656 163.109 m 526.375 163.91 526.184 165.031 526.078 166.477 c 525.973
 167.922 525.926 169.688 525.93 171.781 c 525.93 200.27 l 521.152 201.043
 l 521.152 190.98 l 521.16 190.066 521.172 189.18 521.207 188.32 c 521.234
 187.461 521.254 186.832 521.258 186.438 c 520.375 187.488 519.41 188.25
 518.363 188.727 c 517.313 189.203 516.168 189.438 514.922 189.43 c 513.996
 189.434 513.117 189.313 512.281 189.07 c 511.449 188.824 510.637 188.449
 509.836 187.934 c 508.066 186.781 506.715 185.172 505.789 183.109 c 504.859
 181.039 504.395 178.605 504.383 175.805 c 504.41 171.691 505.336 168.488
 507.164 166.191 c 508.992 163.898 511.578 162.734 514.922 162.695 c 516.293
 162.695 517.523 162.93 518.621 163.402 c 519.719 163.871 520.719 164.582
 521.621 165.535 c 521.695 164.918 521.758 164.449 521.816 164.129 c 521.875
 163.809 521.965 163.469 522.086 163.109 c 526.656 163.109 l f*
583.465 198.668 m 578.273 198.668 l 574.484 180.656 l 574.215 179.418 573.945
 178.047 573.668 176.539 c 573.391 175.039 573.137 173.625 572.91 172.301
 c 572.684 170.973 572.516 169.961 572.406 169.25 c 572.094 169.25 l 572.039
 169.793 571.918 170.641 571.738 171.785 c 571.555 172.93 571.332 174.215
 571.07 175.629 c 570.805 177.043 570.523 178.43 570.227 179.777 c 566.125
 198.668 l 560.359 198.668 l 556.207 179.883 l 555.766 177.809 555.379 175.816
 555.047 173.91 c 554.715 172.004 554.445 170.398 554.238 169.094 c 553.926
 169.094 l 553.754 170.211 553.523 171.723 553.234 173.621 c 552.949 175.516
 552.535 177.758 552.004 180.348 c 548.059 198.668 l 542.656 198.668 l 551.121
 163.008 l 557.297 163.008 l 561.141 181.121 l 561.539 183.031 561.91 184.941
 562.242 186.852 c 562.578 188.758 562.816 190.203 562.957 191.188 c 563.27
 191.188 l 563.398 190.078 563.617 188.641 563.922 186.863 c 564.227 185.086
 564.617 183.105 565.086 180.914 c 569.031 163.008 l 575.156 163.008 l 583.465
 198.668 l f*
594.102 196.914 m 594.078 197.914 593.738 198.738 593.09 199.379 c 592.441
 200.02 591.637 200.352 590.676 200.371 c 589.719 200.348 588.922 200.008
 588.285 199.359 c 587.652 198.707 587.324 197.895 587.301 196.914 c 587.32
 195.957 587.645 195.156 588.262 194.512 c 588.879 193.871 589.668 193.531
 590.625 193.508 c 591.609 193.531 592.43 193.871 593.082 194.512 c 593.738
 195.156 594.078 195.957 594.102 196.914 c h
593.113 163.109 m 593.113 189.586 l 588.184 188.813 l 588.184 163.109 l
 593.113 163.109 l f*
615.363 189.531 m 615.156 189.613 614.914 189.676 614.641 189.719 c 614.363
 189.766 614.066 189.789 613.754 189.789 c 612.387 189.789 611.125 189.418
 609.973 188.668 c 608.816 187.922 607.727 186.797 606.695 185.301 c 606.695
 185.766 l 606.688 186.434 606.598 187.137 606.43 187.867 c 606.258 188.602
 606.055 189.227 605.813 189.738 c 601.191 188.555 l 601.504 187.781 601.746
 186.898 601.918 185.906 c 602.09 184.918 602.176 183.648 602.18 182.102
 c 602.18 163.109 l 606.953 163.109 l 606.953 179.777 l 606.996 181.242 
607.535 182.473 608.563 183.477 c 609.594 184.48 610.855 185 612.352 185.043
 c 612.609 185.043 612.84 185.02 613.047 184.973 c 613.254 184.926 613.473
 184.863 613.703 184.785 c 615.363 189.531 l f*
631.848 188.965 m 625.516 188.965 l 625.523 190.324 625.574 191.711 625.672
 193.129 c 625.77 194.543 625.875 195.738 625.984 196.707 c 621.051 195.57
 l 620.922 194.563 620.84 193.469 620.797 192.289 c 620.754 191.105 620.738
 190 620.742 188.965 c 617.625 188.965 l 617.625 185.613 l 620.742 185.613
 l 620.742 168.941 l 620.75 167.137 620.938 165.91 621.293 165.266 c 621.648
 164.621 622.102 164.09 622.66 163.68 c 623.102 163.285 623.727 162.973 
624.535 162.742 c 625.344 162.512 626.191 162.395 627.074 162.387 c 628.777
 162.387 630.355 162.75 631.797 163.473 c 631.227 166.359 l 630.816 166.18
 630.418 166.051 630.027 165.969 c 629.637 165.887 629.223 165.844 628.789
 165.844 c 627.512 165.82 626.625 166.117 626.125 166.734 c 625.629 167.355
 625.391 168.449 625.41 170.023 c 625.41 185.613 l 630.551 185.613 l 631.848
 188.965 l f*
655.383 171.059 m 655.402 172.781 654.875 174.277 653.801 175.543 c 652.727
 176.805 651.008 177.719 648.637 178.281 c 645.262 179.059 l 643.906 179.355
 642.945 179.789 642.387 180.348 c 641.828 180.906 641.559 181.645 641.578
 182.566 c 641.594 183.742 642.004 184.68 642.801 185.375 c 643.605 186.066
 644.699 186.422 646.094 186.438 c 647.117 186.434 648.145 186.273 649.168
 185.953 c 650.195 185.633 651.297 185.176 652.477 184.578 c 654.09 187.934
 l 653.012 188.563 651.777 189.07 650.375 189.457 c 648.977 189.84 647.48
 190.039 645.887 190.051 c 643.039 190.012 640.773 189.262 639.082 187.805
 c 637.395 186.348 636.527 184.41 636.488 181.996 c 636.496 180.078 637.039
 178.512 638.117 177.289 c 639.195 176.066 640.766 175.246 642.82 174.824
 c 645.988 174.207 l 647.488 173.926 648.594 173.453 649.297 172.785 c 650.008
 172.121 650.355 171.234 650.348 170.129 c 650.324 168.848 649.879 167.836
 649.004 167.09 c 648.133 166.344 646.973 165.965 645.523 165.949 c 644.055
 165.969 642.613 166.223 641.184 166.715 c 639.762 167.207 638.422 167.813
 637.16 168.527 c 635.449 165.121 l 636.973 164.242 638.57 163.566 640.246
 163.094 c 641.918 162.629 643.559 162.391 645.16 162.387 c 648.242 162.426
 650.703 163.227 652.551 164.789 c 654.395 166.348 655.34 168.438 655.383
 171.059 c f*
679.426 165.949 m 677.09 168.891 l 676.305 168.012 675.449 167.344 674.527
 166.891 c 673.602 166.438 672.656 166.211 671.688 166.207 c 670.934 166.211
 670.238 166.344 669.605 166.613 c 668.973 166.883 668.422 167.262 667.953
 167.754 c 667.277 168.469 666.762 169.438 666.406 170.656 c 666.055 171.875
 665.879 173.387 665.875 175.184 c 665.871 176.965 665.969 178.504 666.168
 179.813 c 666.367 181.117 666.684 182.207 667.121 183.082 c 667.578 183.969
 668.199 184.648 668.996 185.133 c 669.793 185.617 670.691 185.863 671.688
 185.871 c 672.5 185.879 673.254 185.73 673.957 185.422 c 674.656 185.117
 675.422 184.594 676.258 183.855 c 678.75 187.105 l 677.77 188.012 676.695
 188.695 675.531 189.152 c 674.367 189.613 673.09 189.844 671.688 189.844
 c 670.418 189.84 669.215 189.613 668.082 189.164 c 666.949 188.719 665.902
 188.066 664.941 187.211 c 663.668 186.129 662.629 184.68 661.828 182.863
 c 661.023 181.047 660.605 178.691 660.582 175.805 c 660.578 173.852 660.777
 172.109 661.184 170.574 c 661.59 169.039 662.219 167.668 663.07 166.465
 c 664.898 163.883 667.684 162.594 671.434 162.594 c 673.063 162.582 674.496
 162.84 675.738 163.363 c 676.98 163.887 678.211 164.746 679.426 165.949
 c f*
704.965 163.109 m 704.965 181.535 l 704.969 182.648 704.93 183.488 704.859
 184.051 c 704.785 184.609 704.648 185.168 704.445 185.715 c 704.023 186.895
 703.219 187.824 702.027 188.52 c 700.84 189.215 699.465 189.57 697.902 
189.586 c 696.945 189.59 696.004 189.449 695.07 189.172 c 694.141 188.895
 693.199 188.445 692.242 187.832 c 691.746 187.512 691.301 187.207 690.906
 186.91 c 690.512 186.609 690.039 186.211 689.492 185.715 c 689.543 186.391
 689.582 187.016 689.609 187.598 c 689.633 188.18 689.648 188.707 689.648
 189.172 c 689.648 194.953 l 689.645 196.211 689.598 197.332 689.5 198.313
 c 689.402 199.297 689.258 200.168 689.078 200.938 c 684.25 199.957 l 684.43
 199.219 684.57 198.402 684.668 197.52 c 684.77 196.637 684.816 195.641 
684.82 194.539 c 684.82 163.109 l 689.648 163.109 l 689.648 181.688 l 690.68
 182.863 691.805 183.781 693.023 184.445 c 694.238 185.105 695.414 185.441
 696.555 185.457 c 697.188 185.449 697.762 185.348 698.273 185.16 c 698.785
 184.973 699.164 184.742 699.406 184.473 c 699.672 184.191 699.883 183.742
 700.043 183.133 c 700.203 182.523 700.285 181.77 700.289 180.863 c 700.289
 163.109 l 704.965 163.109 l f*
726.781 175.805 m 726.625 169.199 l 726.012 168.152 725.227 167.328 724.27
 166.723 c 723.313 166.117 722.281 165.805 721.176 165.793 c 719.844 165.805
 718.832 166.195 718.133 166.973 c 717.43 167.75 717.078 168.855 717.074
 170.285 c 717.066 171.117 717.168 171.813 717.379 172.383 c 717.586 172.949
 717.938 173.504 718.422 174.051 c 718.938 174.648 719.754 175.105 720.871
 175.426 c 721.988 175.742 723.438 175.906 725.227 175.906 c 725.426 175.906
 725.645 175.898 725.887 175.879 c 726.125 175.855 726.426 175.832 726.781
 175.805 c h
733.531 165.227 m 732.555 165.805 731.949 166.555 731.707 167.477 c 731.465
 168.398 731.363 169.73 731.402 171.469 c 731.41 173.402 731.445 175.242
 731.504 176.988 c 731.566 178.73 731.598 180.094 731.609 181.07 c 731.613
 182.293 731.578 183.227 731.504 183.863 c 731.43 184.5 731.293 185.086 
731.09 185.613 c 730.582 186.98 729.68 188.012 728.375 188.703 c 727.078
 189.391 725.473 189.738 723.563 189.738 c 721.066 189.688 718.938 189.301
 717.18 188.578 c 715.418 187.855 713.914 187.105 712.66 186.332 c 714.84
 182.926 l 715.934 183.75 717.188 184.441 718.605 185 c 720.02 185.555 721.434
 185.844 722.836 185.871 c 724.594 185.844 725.723 185.375 726.223 184.457
 c 726.723 183.535 726.941 182.305 726.883 180.762 c 726.883 179.059 l 726.555
 179.082 726.246 179.098 725.957 179.102 c 725.672 179.105 725.375 179.109
 725.066 179.109 c 720.836 179.102 717.578 178.316 715.293 176.762 c 713.012
 175.203 711.855 172.926 711.828 169.922 c 711.855 167.438 712.609 165.555
 714.09 164.27 c 715.566 162.984 717.617 162.34 720.242 162.332 c 721.738
 162.363 723 162.598 724.008 163.035 c 725.02 163.473 725.82 163.961 726.406
 164.492 c 726.988 165.023 727.395 165.441 727.613 165.742 c 727.93 164.836
 728.383 164.066 728.98 163.438 c 729.574 162.809 730.281 162.34 731.09 
162.027 c 733.531 165.227 l f*
753.801 199.391 m 752.992 199.875 752.113 200.23 751.164 200.457 c 750.215
 200.676 749.207 200.785 748.141 200.785 c 747.184 200.785 746.309 200.691
 745.523 200.496 c 744.742 200.297 744.039 199.98 743.418 199.547 c 742.68
 199.066 742.023 198.309 741.438 197.266 c 740.852 196.23 740.543 194.84
 740.508 193.094 c 740.508 192.922 740.508 192.543 740.512 191.953 c 740.516
 191.367 740.523 190.773 740.539 190.172 c 740.555 189.574 740.578 189.172
 740.613 188.965 c 738.066 188.965 l 738.066 185.613 l 740.563 185.613 l
 740.563 163.109 l 745.391 163.109 l 745.391 185.613 l 750.996 185.613 l
 752.242 188.965 l 745.336 188.965 l 745.336 193.145 l 745.344 194.469 745.652
 195.488 746.258 196.195 c 746.863 196.906 747.715 197.266 748.816 197.273
 c 749.406 197.27 749.977 197.176 750.523 196.996 c 751.07 196.82 751.625
 196.586 752.191 196.293 c 753.801 199.391 l f*
767.734 188.965 m 761.402 188.965 l 761.406 190.324 761.461 191.711 761.559
 193.129 c 761.652 194.543 761.758 195.738 761.871 196.707 c 756.938 195.57
 l 756.813 194.563 756.727 193.469 756.684 192.289 c 756.641 191.105 756.621
 190 756.625 188.965 c 753.508 188.965 l 753.508 185.613 l 756.625 185.613
 l 756.625 168.941 l 756.637 167.137 756.82 165.91 757.176 165.266 c 757.531
 164.621 757.988 164.09 758.543 163.68 c 758.984 163.285 759.609 162.973
 760.422 162.742 c 761.23 162.512 762.078 162.395 762.957 162.387 c 764.664
 162.387 766.238 162.75 767.684 163.473 c 767.113 166.359 l 766.703 166.18
 766.301 166.051 765.91 165.969 c 765.523 165.887 765.109 165.844 764.672
 165.844 c 763.395 165.82 762.508 166.117 762.012 166.734 c 761.512 167.355
 761.277 168.449 761.297 170.023 c 761.297 185.613 l 766.438 185.613 l 767.734
 188.965 l f*
292.652 214.719 m 292.652 250.277 l 287.648 250.277 l 287.648 235.672 l
 274.074 235.672 l 274.074 250.277 l 269.172 250.277 l 269.172 214.719 l
 274.074 214.719 l 274.074 231.598 l 287.648 231.598 l 287.648 214.719 l
 292.652 214.719 l f*
318.332 227.207 m 318.313 223.852 317.793 221.418 316.77 219.898 c 315.746
 218.383 314.32 217.637 312.5 217.66 c 310.484 217.605 308.977 218.375 307.969
 219.965 c 306.965 221.551 306.461 224.297 306.461 228.188 c 306.445 231.43
 306.902 233.813 307.828 235.348 c 308.754 236.887 310.242 237.645 312.293
 237.633 c 314.172 237.699 315.641 236.961 316.703 235.422 c 317.77 233.879
 318.313 231.141 318.332 227.207 c h
323.648 227.414 m 323.648 230.039 323.234 232.395 322.398 234.477 c 321.566
 236.559 320.313 238.211 318.633 239.43 c 316.949 240.648 314.836 241.27
 312.293 241.297 c 308.848 241.25 306.148 240.023 304.188 237.621 c 302.23
 235.215 301.234 231.895 301.199 227.672 c 301.23 223.422 302.23 220.094
 304.203 217.68 c 306.172 215.27 308.902 214.039 312.395 213.996 c 315.867
 214.043 318.598 215.254 320.594 217.629 c 322.59 220.004 323.605 223.266
 323.648 227.414 c f*
349.395 217.559 m 347.07 220.5 l 346.289 219.617 345.438 218.953 344.523
 218.496 c 343.605 218.047 342.664 217.816 341.703 217.816 c 340.949 217.82
 340.262 217.953 339.633 218.223 c 339.004 218.488 338.453 218.871 337.988
 219.363 c 337.313 220.078 336.801 221.047 336.453 222.266 c 336.102 223.484
 335.926 224.996 335.922 226.797 c 335.918 228.57 336.016 230.113 336.211
 231.422 c 336.41 232.727 336.727 233.816 337.16 234.691 c 337.613 235.574
 338.234 236.258 339.027 236.742 c 339.816 237.227 340.711 237.473 341.703
 237.477 c 342.508 237.488 343.258 237.34 343.953 237.035 c 344.648 236.727
 345.414 236.203 346.242 235.465 c 348.723 238.719 l 347.746 239.621 346.68
 240.301 345.52 240.762 c 344.363 241.223 343.094 241.453 341.703 241.453
 c 340.438 241.449 339.242 241.223 338.117 240.773 c 336.992 240.324 335.953
 239.672 334.992 238.82 c 333.727 237.738 332.695 236.289 331.895 234.473
 c 331.098 232.652 330.684 230.301 330.66 227.414 c 330.656 225.461 330.855
 223.719 331.258 222.184 c 331.66 220.648 332.289 219.277 333.133 218.074
 c 334.949 215.492 337.719 214.203 341.445 214.203 c 343.066 214.191 344.492
 214.445 345.73 214.969 c 346.961 215.492 348.184 216.355 349.395 217.559
 c f*
376.07 214.719 m 376.07 233.145 l 376.074 234.258 376.039 235.098 375.965
 235.66 c 375.895 236.219 375.754 236.777 375.555 237.324 c 375.133 238.5
 374.336 239.434 373.152 240.129 c 371.973 240.824 370.605 241.18 369.051
 241.195 c 368.102 241.199 367.16 241.059 366.238 240.781 c 365.313 240.5
 364.375 240.055 363.426 239.438 c 362.93 239.121 362.488 238.816 362.098
 238.516 c 361.707 238.219 361.234 237.82 360.691 237.324 c 360.742 237.996
 360.781 238.625 360.809 239.207 c 360.832 239.789 360.844 240.313 360.844
 240.781 c 360.844 246.563 l 360.844 247.82 360.793 248.941 360.695 249.922
 c 360.602 250.902 360.457 251.781 360.277 252.547 c 355.477 251.566 l 355.66
 250.824 355.801 250.012 355.898 249.129 c 355.996 248.246 356.043 247.25
 356.047 246.148 c 356.047 214.719 l 360.844 214.719 l 360.844 233.297 l
 361.871 234.469 362.992 235.391 364.199 236.051 c 365.406 236.719 366.578
 237.055 367.711 237.066 c 368.34 237.055 368.91 236.957 369.418 236.77 
c 369.926 236.578 370.305 236.352 370.547 236.086 c 370.809 235.797 371.02
 235.352 371.18 234.742 c 371.34 234.133 371.422 233.379 371.426 232.473
 c 371.426 214.719 l 376.07 214.719 l f*
404.16 222.668 m 404.176 224.391 403.652 225.887 402.586 227.152 c 401.52
 228.418 399.809 229.328 397.449 229.891 c 394.098 230.668 l 392.746 230.965
 391.793 231.398 391.238 231.957 c 390.684 232.516 390.414 233.254 390.434
 234.176 c 390.449 235.352 390.855 236.289 391.652 236.98 c 392.449 237.676
 393.539 238.031 394.922 238.043 c 395.941 238.043 396.961 237.883 397.98
 237.563 c 399 237.242 400.094 236.785 401.27 236.188 c 402.871 239.539 
l 401.801 240.172 400.57 240.68 399.18 241.066 c 397.789 241.449 396.301
 241.648 394.715 241.656 c 391.887 241.621 389.633 240.871 387.953 239.414
 c 386.277 237.957 385.414 236.02 385.375 233.605 c 385.383 231.688 385.922
 230.121 386.992 228.898 c 388.066 227.676 389.625 226.855 391.672 226.434
 c 394.816 225.813 l 396.309 225.535 397.406 225.063 398.109 224.395 c 398.813
 223.73 399.16 222.844 399.156 221.738 c 399.133 220.457 398.688 219.441
 397.82 218.699 c 396.949 217.953 395.797 217.574 394.352 217.559 c 392.898
 217.578 391.461 217.832 390.047 218.324 c 388.629 218.816 387.293 219.422
 386.047 220.137 c 384.344 216.73 l 385.859 215.848 387.445 215.176 389.109
 214.703 c 390.773 214.238 392.402 214 393.992 213.996 c 397.059 214.035
 399.508 214.836 401.344 216.395 c 403.176 217.957 404.113 220.047 404.16
 222.668 c f*
429.348 217.559 m 427.027 220.5 l 426.246 219.617 425.398 218.953 424.477
 218.496 c 423.563 218.047 422.621 217.816 421.66 217.816 c 420.91 217.82
 420.219 217.953 419.59 218.223 c 418.961 218.488 418.41 218.871 417.945
 219.363 c 417.27 220.078 416.758 221.047 416.406 222.266 c 416.059 223.484
 415.883 224.996 415.879 226.797 c 415.875 228.57 415.973 230.113 416.168
 231.422 c 416.367 232.727 416.684 233.816 417.117 234.691 c 417.566 235.574
 418.191 236.258 418.98 236.742 c 419.773 237.227 420.668 237.473 421.66
 237.477 c 422.465 237.488 423.215 237.34 423.91 237.035 c 424.605 236.727
 425.371 236.203 426.203 235.465 c 428.676 238.719 l 427.703 239.621 426.637
 240.301 425.477 240.762 c 424.32 241.223 423.047 241.453 421.66 241.453
 c 420.395 241.449 419.195 241.223 418.07 240.773 c 416.949 240.324 415.906
 239.672 414.953 238.82 c 413.688 237.738 412.656 236.289 411.855 234.473
 c 411.055 232.652 410.641 230.301 410.613 227.414 c 410.613 225.461 410.813
 223.719 411.215 222.184 c 411.621 220.648 412.242 219.277 413.094 218.074
 c 414.906 215.492 417.676 214.203 421.398 214.203 c 423.023 214.191 424.449
 214.445 425.684 214.969 c 426.918 215.492 428.141 216.355 429.348 217.559
 c f*
456.027 214.719 m 456.027 233.145 l 456.031 234.258 455.996 235.098 455.926
 235.66 c 455.852 236.219 455.711 236.777 455.512 237.324 c 455.09 238.5
 454.293 239.434 453.109 240.129 c 451.93 240.824 450.563 241.18 449.008
 241.195 c 448.059 241.199 447.121 241.059 446.195 240.781 c 445.27 240.5
 444.332 240.055 443.383 239.438 c 442.887 239.121 442.445 238.816 442.055
 238.516 c 441.664 238.219 441.191 237.82 440.648 237.324 c 440.699 237.996
 440.738 238.625 440.762 239.207 c 440.789 239.789 440.801 240.313 440.801
 240.781 c 440.801 246.563 l 440.801 247.82 440.75 248.941 440.656 249.922
 c 440.555 250.902 440.418 251.781 440.234 252.547 c 435.434 251.566 l 435.617
 250.824 435.754 250.012 435.852 249.129 c 435.953 248.246 436 247.25 436
 246.148 c 436 214.719 l 440.801 214.719 l 440.801 233.297 l 441.832 234.469
 442.949 235.391 444.156 236.051 c 445.363 236.719 446.535 237.055 447.664
 237.066 c 448.297 237.055 448.867 236.957 449.375 236.77 c 449.883 236.578
 450.262 236.352 450.504 236.086 c 450.766 235.797 450.977 235.352 451.137
 234.742 c 451.297 234.133 451.379 233.379 451.383 232.473 c 451.383 214.719
 l 456.027 214.719 l f*
487.16 216.422 m 486.641 216.863 486.246 217.539 485.973 218.449 c 485.703
 219.355 485.566 220.469 485.563 221.789 c 485.563 241.246 l 480.867 240.316
 l 480.867 221.738 l 480.289 220.574 479.465 219.613 478.387 218.848 c 477.309
 218.082 476.176 217.688 474.98 217.66 c 474.402 217.668 473.844 217.781
 473.309 217.996 c 472.777 218.211 472.336 218.477 471.988 218.797 c 471.535
 219.203 471.219 219.742 471.047 220.41 c 470.875 221.074 470.793 222.051
 470.801 223.336 c 470.801 241.352 l 466.105 240.422 l 466.105 222.047 l
 466.102 221.117 466.145 220.293 466.242 219.57 c 466.336 218.848 466.496
 218.227 466.727 217.711 c 467.281 216.512 468.168 215.57 469.375 214.887
 c 470.586 214.203 472.023 213.855 473.691 213.84 c 475.289 213.84 476.727
 214.141 478.016 214.75 c 479.301 215.359 480.457 216.297 481.484 217.559
 c 481.707 216.695 482.008 215.98 482.387 215.41 c 482.766 214.836 483.273
 214.316 483.91 213.84 c 487.16 216.422 l f*
503.656 214.77 m 502.828 217.711 l 502.535 217.637 502.234 217.633 501.934
 217.699 c 501.629 217.766 501.395 217.891 501.23 218.074 c 500.977 218.262
 500.801 218.617 500.699 219.129 c 500.602 219.645 500.555 220.566 500.559
 221.891 c 500.559 245.168 l 500.566 246.766 500.547 248.188 500.5 249.418
 c 500.453 250.652 500.316 251.695 500.094 252.547 c 495.141 251.516 l 495.344
 250.555 495.488 249.523 495.578 248.418 c 495.668 247.316 495.707 245.871
 495.707 244.082 c 495.707 220.652 l 495.699 219.426 495.766 218.496 495.91
 217.867 c 496.051 217.234 496.309 216.668 496.688 216.164 c 497.168 215.473
 497.727 214.973 498.371 214.66 c 499.012 214.352 499.793 214.199 500.715
 214.203 c 501.273 214.199 501.781 214.242 502.242 214.332 c 502.703 214.418
 503.176 214.566 503.656 214.77 c f*
525.258 230.148 m 514.523 230.148 l 514.523 232.523 514.977 234.383 515.879
 235.73 c 516.781 237.074 518.137 237.762 519.941 237.789 c 520.77 237.777
 521.488 237.605 522.109 237.27 c 522.727 236.938 523.246 236.508 523.656
 235.98 c 524.176 235.328 524.57 234.504 524.844 233.512 c 525.117 232.516
 525.258 231.395 525.258 230.148 c h
530.211 226.641 m 530.211 227.469 l 530.199 230.383 529.953 232.691 529.469
 234.395 c 528.988 236.098 528.184 237.504 527.063 238.613 c 525.266 240.473
 522.926 241.398 520.047 241.398 c 518.449 241.402 517.008 241.113 515.723
 240.531 c 514.438 239.945 513.277 239.047 512.25 237.84 c 511.152 236.551
 510.359 235.117 509.871 233.531 c 509.383 231.945 509.145 230.043 509.156
 227.828 c 509.188 223.555 510.219 220.219 512.242 217.816 c 514.273 215.414
 517.094 214.191 520.715 214.152 c 522.395 214.148 523.992 214.422 525.488
 214.969 c 526.988 215.516 528.375 216.344 529.645 217.453 c 527.84 220.293
 l 526.91 219.465 525.926 218.848 524.875 218.434 c 523.828 218.023 522.699
 217.816 521.488 217.816 c 520.242 217.813 519.109 218.063 518.098 218.563
 c 517.082 219.063 516.234 219.828 515.555 220.859 c 515.168 221.477 514.895
 222.215 514.723 223.074 c 514.551 223.93 514.469 224.91 514.469 226.02 
c 514.469 226.641 l 530.211 226.641 l f*
551.637 214.719 m 556.695 214.719 l 556.695 250.277 l 551.637 250.277 l
 h
576.051 214.719 m 562.582 233.762 l 575.582 250.277 l 569.34 250.277 l 
556.902 233.711 l 569.598 214.719 l 576.051 214.719 l f*
594.59 227.414 m 594.438 220.809 l 593.824 219.762 593.043 218.938 592.094
 218.332 c 591.145 217.723 590.117 217.414 589.02 217.402 c 587.695 217.414
 586.688 217.805 585.988 218.582 c 585.293 219.359 584.945 220.465 584.938
 221.891 c 584.934 222.723 585.035 223.422 585.242 223.988 c 585.449 224.555
 585.797 225.113 586.281 225.66 c 586.789 226.258 587.605 226.715 588.715
 227.035 c 589.824 227.352 591.266 227.512 593.043 227.516 c 593.242 227.516
 593.461 227.508 593.699 227.484 c 593.938 227.465 594.234 227.441 594.59
 227.414 c h
601.301 216.832 m 600.332 217.414 599.727 218.164 599.488 219.086 c 599.246
 220.008 599.148 221.34 599.184 223.078 c 599.191 225.012 599.227 226.852
 599.285 228.594 c 599.348 230.34 599.383 231.703 599.387 232.68 c 599.395
 233.902 599.359 234.836 599.285 235.473 c 599.215 236.109 599.074 236.691
 598.875 237.223 c 598.371 238.59 597.469 239.621 596.176 240.309 c 594.887
 241 593.289 241.348 591.391 241.352 c 588.906 241.297 586.789 240.91 585.043
 240.188 c 583.293 239.465 581.797 238.719 580.555 237.941 c 582.719 234.535
 l 583.805 235.359 585.055 236.047 586.461 236.605 c 587.871 237.164 589.273
 237.453 590.668 237.477 c 592.414 237.453 593.539 236.984 594.035 236.066
 c 594.531 235.145 594.754 233.914 594.691 232.367 c 594.691 230.668 l 594.363
 230.691 594.059 230.707 593.77 230.711 c 593.488 230.715 593.191 230.719
 592.887 230.715 c 588.68 230.711 585.441 229.926 583.172 228.367 c 580.902
 226.813 579.754 224.531 579.727 221.531 c 579.754 219.047 580.5 217.164
 581.973 215.879 c 583.441 214.598 585.484 213.949 588.086 213.945 c 589.578
 213.973 590.828 214.203 591.832 214.645 c 592.84 215.082 593.637 215.566
 594.219 216.102 c 594.797 216.633 595.195 217.047 595.418 217.352 c 595.73
 216.445 596.184 215.676 596.777 215.047 c 597.367 214.418 598.07 213.949
 598.875 213.637 c 601.301 216.832 l f*
622.688 241.141 m 622.48 241.223 622.238 241.281 621.965 241.328 c 621.695
 241.375 621.402 241.398 621.09 241.398 c 619.727 241.398 618.473 241.027
 617.328 240.277 c 616.18 239.531 615.094 238.406 614.07 236.91 c 614.07
 237.375 l 614.063 238.043 613.973 238.746 613.805 239.477 c 613.637 240.211
 613.434 240.836 613.191 241.352 c 608.598 240.164 l 608.91 239.391 609.152
 238.508 609.32 237.516 c 609.492 236.527 609.578 235.258 609.578 233.711
 c 609.578 214.719 l 614.328 214.719 l 614.328 231.387 l 614.371 232.848
 614.906 234.082 615.926 235.086 c 616.949 236.086 618.207 236.613 619.695
 236.652 c 619.949 236.652 620.18 236.629 620.387 236.582 c 620.594 236.535
 620.813 236.473 621.039 236.395 c 622.688 241.141 l f*
636.547 214.77 m 635.723 217.711 l 635.426 217.637 635.129 217.633 634.824
 217.699 c 634.523 217.766 634.293 217.891 634.125 218.074 c 633.871 218.262
 633.695 218.617 633.594 219.129 c 633.492 219.645 633.449 220.566 633.453
 221.891 c 633.453 245.168 l 633.461 246.766 633.441 248.188 633.395 249.418
 c 633.348 250.652 633.211 251.695 632.988 252.547 c 628.035 251.516 l 628.238
 250.555 628.383 249.523 628.473 248.418 c 628.563 247.316 628.602 245.871
 628.602 244.082 c 628.602 220.652 l 628.594 219.426 628.66 218.496 628.801
 217.867 c 628.941 217.234 629.199 216.668 629.582 216.164 c 630.059 215.473
 630.625 214.973 631.266 214.66 c 631.906 214.352 632.688 214.199 633.605
 214.203 c 634.164 214.199 634.672 214.242 635.137 214.332 c 635.598 214.418
 636.066 214.566 636.547 214.77 c f*
661.352 222.668 m 661.367 224.391 660.844 225.887 659.777 227.152 c 658.711
 228.418 657 229.328 654.641 229.891 c 651.285 230.668 l 649.938 230.965
 648.984 231.398 648.43 231.957 c 647.871 232.516 647.605 233.254 647.625
 234.176 c 647.637 235.352 648.047 236.289 648.84 236.98 c 649.637 237.676
 650.727 238.031 652.113 238.043 c 653.133 238.043 654.152 237.883 655.172
 237.563 c 656.191 237.242 657.285 236.785 658.461 236.188 c 660.059 239.539
 l 658.992 240.172 657.762 240.68 656.371 241.066 c 654.98 241.449 653.492
 241.648 651.906 241.656 c 649.078 241.621 646.824 240.871 645.145 239.414
 c 643.465 237.957 642.605 236.02 642.566 233.605 c 642.57 231.688 643.109
 230.121 644.184 228.898 c 645.254 227.676 646.813 226.855 648.859 226.434
 c 652.008 225.813 l 653.5 225.535 654.598 225.063 655.301 224.395 c 656
 223.73 656.352 222.844 656.344 221.738 c 656.324 220.457 655.875 219.441
 655.008 218.699 c 654.141 217.953 652.988 217.574 651.547 217.559 c 650.09
 217.578 648.652 217.832 647.234 218.324 c 645.816 218.816 644.488 219.422
 643.238 220.137 c 641.531 216.73 l 643.047 215.848 644.637 215.176 646.301
 214.703 c 647.965 214.238 649.59 214 651.184 213.996 c 654.25 214.035 656.699
 214.836 658.531 216.395 c 660.363 217.957 661.305 220.047 661.352 222.668
 c f*
682.668 241.141 m 682.461 241.223 682.219 241.281 681.945 241.328 c 681.672
 241.375 681.379 241.398 681.07 241.398 c 679.711 241.398 678.457 241.027
 677.309 240.277 c 676.16 239.531 675.074 238.406 674.051 236.91 c 674.051
 237.375 l 674.043 238.043 673.953 238.746 673.785 239.477 c 673.617 240.211
 673.414 240.836 673.176 241.352 c 668.578 240.164 l 668.891 239.391 669.133
 238.508 669.305 237.516 c 669.473 236.527 669.559 235.258 669.559 233.711
 c 669.559 214.719 l 674.309 214.719 l 674.309 231.387 l 674.352 232.848
 674.887 234.082 675.906 235.086 c 676.93 236.086 678.188 236.613 679.676
 236.652 c 679.93 236.652 680.16 236.629 680.367 236.582 c 680.574 236.535
 680.789 236.473 681.02 236.395 c 682.668 241.141 l f*
709.379 216.422 m 708.859 216.863 708.469 217.539 708.191 218.449 c 707.918
 219.355 707.781 220.469 707.781 221.789 c 707.781 241.246 l 703.082 240.316
 l 703.082 221.738 l 702.508 220.574 701.684 219.613 700.605 218.848 c 699.531
 218.082 698.395 217.688 697.199 217.66 c 696.621 217.668 696.063 217.781
 695.527 217.996 c 694.996 218.211 694.555 218.477 694.207 218.797 c 693.75
 219.203 693.438 219.742 693.266 220.41 c 693.094 221.074 693.012 222.051
 693.02 223.336 c 693.02 241.352 l 688.324 240.422 l 688.324 222.047 l 688.32
 221.117 688.367 220.293 688.457 219.57 c 688.551 218.848 688.715 218.227
 688.941 217.711 c 689.5 216.512 690.383 215.57 691.594 214.887 c 692.805
 214.203 694.242 213.855 695.91 213.84 c 697.504 213.84 698.945 214.141 
700.23 214.75 c 701.516 215.359 702.676 216.297 703.703 217.559 c 703.926
 216.695 704.227 215.98 704.605 215.41 c 704.984 214.836 705.492 214.316
 706.129 213.84 c 709.379 216.422 l f*
738.156 214.719 m 738.156 233.145 l 738.16 234.258 738.125 235.098 738.051
 235.66 c 737.98 236.219 737.84 236.777 737.641 237.324 c 737.223 238.5 
736.422 239.434 735.242 240.129 c 734.063 240.824 732.691 241.18 731.137
 241.195 c 730.188 241.199 729.25 241.059 728.324 240.781 c 727.398 240.5
 726.461 240.055 725.512 239.438 c 725.016 239.121 724.574 238.816 724.184
 238.516 c 723.793 238.219 723.32 237.82 722.777 237.324 c 722.828 237.996
 722.867 238.625 722.895 239.207 c 722.918 239.789 722.93 240.313 722.93
 240.781 c 722.93 246.563 l 722.93 247.82 722.879 248.941 722.781 249.922
 c 722.688 250.902 722.547 251.781 722.363 252.547 c 717.563 251.566 l 717.746
 250.824 717.883 250.012 717.984 249.129 c 718.082 248.246 718.129 247.25
 718.133 246.148 c 718.133 214.719 l 722.93 214.719 l 722.93 233.297 l 723.961
 234.469 725.078 235.391 726.285 236.051 c 727.492 236.719 728.664 237.055
 729.793 237.066 c 730.426 237.055 730.996 236.957 731.504 236.77 c 732.012
 236.578 732.391 236.352 732.633 236.086 c 732.898 235.797 733.109 235.352
 733.266 234.742 c 733.426 234.133 733.508 233.379 733.512 232.473 c 733.512
 214.719 l 738.156 214.719 l f*
763.047 230.148 m 752.313 230.148 l 752.313 232.523 752.766 234.383 753.668
 235.73 c 754.57 237.074 755.926 237.762 757.73 237.789 c 758.559 237.777
 759.277 237.605 759.898 237.27 c 760.52 236.938 761.035 236.508 761.445
 235.98 c 761.965 235.328 762.359 234.504 762.633 233.512 c 762.906 232.516
 763.047 231.395 763.047 230.148 c h
768 226.641 m 768 227.469 l 767.988 230.383 767.742 232.691 767.258 234.395
 c 766.777 236.098 765.973 237.504 764.852 238.613 c 763.055 240.473 760.715
 241.398 757.832 241.398 c 756.238 241.402 754.797 241.113 753.512 240.531
 c 752.227 239.945 751.07 239.047 750.039 237.84 c 748.941 236.551 748.148
 235.117 747.66 233.531 c 747.172 231.945 746.934 230.043 746.945 227.828
 c 746.977 223.555 748.008 220.219 750.035 217.816 c 752.059 215.414 754.883
 214.191 758.504 214.152 c 760.184 214.148 761.777 214.422 763.281 214.969
 c 764.777 215.516 766.164 216.344 767.434 217.453 c 765.625 220.293 l 764.703
 219.465 763.715 218.848 762.664 218.434 c 761.617 218.023 760.488 217.816
 759.277 217.816 c 758.031 217.813 756.898 218.063 755.887 218.563 c 754.871
 219.063 754.023 219.828 753.344 220.859 c 752.957 221.477 752.684 222.215
 752.512 223.074 c 752.34 223.93 752.258 224.91 752.262 226.02 c 752.262
 226.641 l 768 226.641 l f*
0.929412 0.109804 0.141176 rg
282.828 115.449 m 282.828 130.688 l 279.395 130.688 l 279.395 116.461 l
 279.395 113.645 278.172 112.145 275.664 112.145 c 273.129 112.145 271.996
 113.215 271.996 116.461 c 271.996 130.688 l 268.535 130.688 l 268.535 115.418
 l 268.535 112.023 270.234 109.145 275.664 109.145 c 280.199 109.145 282.828
 111.563 282.828 115.449 c f*
304.273 109.516 m 304.273 130.688 l 301.02 130.688 l 301.082 121.02 l 301.082
 119.09 301.289 116.063 301.379 114.992 c 301.289 114.898 l 301.02 115.879
 300.125 118.387 299.172 120.348 c 294.16 130.688 l 290.281 130.688 l 290.281
 109.516 l 293.652 109.516 l 293.531 119.762 l 293.5 121.633 293.473 123.863
 293.32 125.637 c 293.414 125.73 l 293.801 124.477 294.934 121.813 296.035
 119.457 c 300.66 109.516 l 304.273 109.516 l f*
311.816 130.688 3.516 -21.176 re f
337.078 130.688 m 333.496 130.688 l 329.711 118.875 l 328.695 115.723 328.457
 114.441 328.457 114.441 c 328.395 114.441 l 328.395 114.441 328.16 116 
327.32 118.691 c 323.594 130.688 l 319.832 130.688 l 326.785 109.422 l 329.977
 109.422 l 337.078 130.688 l f*
353.48 109.516 m 353.48 112.512 l 345.215 112.512 l 345.215 119.121 l 351.508
 119.121 l 351.508 122.027 l 345.152 122.027 l 345.152 127.809 l 352.73 
127.809 l 353.18 130.688 l 341.723 130.688 l 341.723 109.516 l 353.48 109.516
 l f*
365.016 127.844 m 368.063 127.844 369.195 126.738 369.195 124.598 c 369.195
 123.496 368.836 122.609 368.27 122.027 c 367.641 121.383 366.688 121.141
 364.898 121.141 c 363.137 121.141 l 363.137 127.844 l h
373.879 109.516 m 370.836 114.594 l 369.762 116.367 368.387 118.418 367.641
 118.813 c 370.863 118.813 372.773 121.602 372.773 124.629 c 372.773 127.934
 370.688 130.688 366.063 130.688 c 359.766 130.688 l 359.766 109.516 l 363.137
 109.516 l 363.137 118.66 l 363.793 118.633 364.094 118.418 364.48 118.02
 c 365.613 116.855 366.566 115.387 368 112.785 c 369.789 109.516 l 373.879
 109.516 l f*
392.543 115.906 m 392.543 119.09 390.457 121.047 387.473 121.934 c 385.027
 122.672 l 382.996 123.281 382.281 123.953 382.281 125.273 c 382.281 127.016
 383.625 128.148 385.652 128.148 c 387.293 128.148 388.605 127.688 390.516
 126.523 c 392.066 129.004 l 390.246 130.32 387.891 131.023 385.531 131.023
 c 381.387 131.023 378.52 128.484 378.52 124.75 c 378.52 123.527 378.82 
122.52 379.387 121.66 c 380.164 120.469 381.504 119.672 383.387 119.121 
c 385.59 118.477 l 387.711 117.867 388.664 116.887 388.664 115.328 c 388.664
 113.215 387.145 111.961 384.609 111.961 c 382.52 111.961 380.879 112.602
 379.031 113.707 c 377.715 111.016 l 379.746 109.758 382.133 109.117 384.488
 109.117 c 389.77 109.117 392.543 112.391 392.543 115.906 c f*
398.773 130.688 3.52 -21.176 re f
421.684 130.688 m 407.391 130.688 l 407.391 127.75 l 412.613 127.75 l 412.613
 109.516 l 416.043 109.516 l 416.043 127.75 l 421.234 127.75 l 421.684 130.688
 l f*
440.801 130.688 m 436.801 130.688 l 433.641 123.984 l 433.102 122.824 432.504
 121.324 432.504 121.324 c 432.504 121.324 432.027 122.703 431.402 124.047
 c 428.301 130.688 l 424.152 130.688 l 430.656 118.082 l 430.656 109.516
 l 434.207 109.516 l 434.207 118.051 l 440.801 130.688 l f*
461.047 111.84 m 457.523 111.84 456.18 114.867 456.18 120.313 c 456.18 
125.395 457.496 128.27 460.957 128.27 c 464.656 128.27 465.699 125.023 465.699
 119.855 c 465.699 114.164 464.121 111.84 461.047 111.84 c h
461.133 109.176 m 466.504 109.176 469.609 113.461 469.609 120.07 c 469.609
 126.25 466.805 130.992 460.984 130.992 c 455.824 130.992 452.363 127.074
 452.363 120.102 c 452.363 113.828 455.258 109.176 461.133 109.176 c f*
486.371 130.688 m 475.453 130.688 l 475.453 109.516 l 478.883 109.516 l
 478.883 119.211 l 484.641 119.211 l 484.641 122.059 l 478.883 122.059 l
 478.883 127.809 l 485.953 127.809 l 486.371 130.688 l f*
508.32 118.02 m 503.246 118.02 l 503.727 119.426 505.84 127.047 505.84 
127.047 c 505.871 127.047 l 506.023 126.219 508.109 118.477 508.32 118.02
 c h
514.523 109.516 m 507.93 130.715 l 503.965 130.715 l 497.191 109.516 l 
500.742 109.516 l 502.41 115.082 l 509.094 115.082 l 510.762 109.516 l 514.523
 109.516 l f*
525.109 127.844 m 526.449 127.844 527.344 127.473 527.969 126.801 c 528.539
 126.188 528.805 125.301 528.805 124.141 c 528.805 121.633 527.645 120.406
 525.109 120.406 c 522.422 120.406 l 522.422 127.844 l h
532.594 124.352 m 532.594 126.68 531.582 128.574 529.762 129.68 c 528.625
 130.379 527.523 130.688 524.512 130.688 c 519.02 130.688 l 519.02 109.516
 l 522.422 109.516 l 522.422 117.59 l 525.91 117.59 l 529.641 117.59 532.594
 120.191 532.594 124.352 c f*
543.836 127.844 m 545.184 127.844 546.074 127.473 546.703 126.801 c 547.27
 126.188 547.539 125.301 547.539 124.141 c 547.539 121.633 546.375 120.406
 543.836 120.406 c 541.152 120.406 l 541.152 127.844 l h
551.328 124.352 m 551.328 126.68 550.313 128.574 548.492 129.68 c 547.359
 130.379 546.258 130.688 543.242 130.688 c 537.754 130.688 l 537.754 109.516
 l 541.152 109.516 l 541.152 117.59 l 544.645 117.59 l 548.371 117.59 551.328
 120.191 551.328 124.352 c f*
567.465 112.422 m 559.824 112.422 l 559.824 130.688 l 556.336 130.688 l
 556.336 109.516 l 566.898 109.516 l 567.465 112.422 l f*
572.199 130.688 3.523 -21.176 re f
594.93 109.516 m 594.93 112.512 l 586.664 112.512 l 586.664 119.121 l 592.961
 119.121 l 592.961 122.027 l 586.605 122.027 l 586.605 127.809 l 594.184
 127.809 l 594.633 130.688 l 583.176 130.688 l 583.176 109.516 l 594.93 
109.516 l f*
611.84 119.672 m 611.84 114.867 610.379 112.391 606.738 112.391 c 604.469
 112.391 l 604.469 127.902 l 606.648 127.902 l 608.5 127.902 609.574 127.414
 610.527 126.066 c 611.602 124.566 611.84 122.395 611.84 119.672 c h
615.66 120.039 m 615.66 123.344 614.941 125.883 613.422 127.688 c 611.48
 129.953 609.184 130.688 605.305 130.688 c 601.008 130.688 l 601.008 109.516
 l 606.109 109.516 l 609.961 109.516 611.75 110.215 613.48 112.48 c 614.883
 114.316 615.66 116.828 615.66 120.039 c f*
643.566 115.906 m 643.566 119.09 641.477 121.047 638.492 121.934 c 636.047
 122.672 l 634.02 123.281 633.305 123.953 633.305 125.273 c 633.305 127.016
 634.645 128.148 636.676 128.148 c 638.316 128.148 639.629 127.688 641.539
 126.523 c 643.09 129.004 l 641.27 130.32 638.914 131.023 636.555 131.023
 c 632.41 131.023 629.543 128.484 629.543 124.75 c 629.543 123.527 629.844
 122.52 630.41 121.66 c 631.184 120.469 632.527 119.672 634.406 119.121 
c 636.613 118.477 l 638.734 117.867 639.688 116.887 639.688 115.328 c 639.688
 113.215 638.168 111.961 635.633 111.961 c 633.543 111.961 631.902 112.602
 630.055 113.707 c 628.738 111.016 l 630.77 109.758 633.156 109.117 635.512
 109.117 c 640.793 109.117 643.566 112.391 643.566 115.906 c f*
662.805 111.043 m 661.191 113.277 l 660.031 112.328 658.957 111.93 657.492
 111.93 c 655.496 111.93 653.797 112.91 652.898 114.93 c 652.363 116.121
 652.094 117.59 652.094 120.191 c 652.094 122.703 652.453 124.477 653.168
 125.762 c 654.063 127.383 655.527 128.301 657.285 128.301 c 658.566 128.301
 659.699 127.934 660.805 127.105 c 662.387 129.434 l 661.164 130.473 659.254
 131.086 657.254 131.086 c 654.031 131.086 651.199 129.25 649.648 126.219
 c 648.723 124.445 648.277 122.332 648.277 119.793 c 648.277 116.734 649.082
 114.164 650.633 112.238 c 652.242 110.246 654.422 109.176 657.164 109.176
 c 659.375 109.176 661.191 109.789 662.805 111.043 c f*
667.898 130.688 3.52 -21.176 re f
690.629 109.516 m 690.629 112.512 l 682.367 112.512 l 682.367 119.121 l
 688.66 119.121 l 688.66 122.027 l 682.305 122.027 l 682.305 127.809 l 689.883
 127.809 l 690.328 130.688 l 678.875 130.688 l 678.875 109.516 l 690.629
 109.516 l f*
710.789 109.516 m 710.789 130.688 l 707.539 130.688 l 707.598 121.02 l 
707.598 119.09 707.809 116.063 707.895 114.992 c 707.809 114.898 l 707.539
 115.879 706.645 118.387 705.688 120.348 c 700.676 130.688 l 696.797 130.688
 l 696.797 109.516 l 700.168 109.516 l 700.051 119.762 l 700.02 121.633 
699.988 123.863 699.84 125.637 c 699.93 125.73 l 700.316 124.477 701.453
 121.813 702.555 119.457 c 707.18 109.516 l 710.789 109.516 l f*
731.219 111.043 m 729.609 113.277 l 728.445 112.328 727.371 111.93 725.91
 111.93 c 723.91 111.93 722.211 112.91 721.316 114.93 c 720.777 116.121 
720.512 117.59 720.512 120.191 c 720.512 122.703 720.867 124.477 721.586
 125.762 c 722.477 127.383 723.941 128.301 725.699 128.301 c 726.984 128.301
 728.121 127.934 729.223 127.105 c 730.805 129.434 l 729.578 130.473 727.672
 131.086 725.672 131.086 c 722.449 131.086 719.613 129.25 718.066 126.219
 c 717.137 124.445 716.691 122.332 716.691 119.793 c 716.691 116.734 717.496
 114.164 719.047 112.238 c 720.66 110.246 722.836 109.176 725.582 109.176
 c 727.789 109.176 729.609 109.789 731.219 111.043 c f*
748.07 109.516 m 748.07 112.512 l 739.809 112.512 l 739.809 119.121 l 746.102
 119.121 l 746.102 122.027 l 739.75 122.027 l 739.75 127.809 l 747.324 127.809
 l 747.773 130.688 l 736.316 130.688 l 736.316 109.516 l 748.07 109.516 
l f*
767.336 115.906 m 767.336 119.09 765.246 121.047 762.266 121.934 c 759.816
 122.672 l 757.789 123.281 757.074 123.953 757.074 125.273 c 757.074 127.016
 758.414 128.148 760.445 128.148 c 762.086 128.148 763.398 127.688 765.309
 126.523 c 766.859 129.004 l 765.039 130.32 762.684 131.023 760.324 131.023
 c 756.18 131.023 753.316 128.484 753.316 124.75 c 753.316 123.527 753.613
 122.52 754.18 121.66 c 754.957 120.469 756.297 119.672 758.176 119.121 
c 760.387 118.477 l 762.504 117.867 763.457 116.887 763.457 115.328 c 763.457
 113.215 761.938 111.961 759.402 111.961 c 757.313 111.961 755.672 112.602
 753.824 113.707 c 752.508 111.016 l 754.539 109.758 756.926 109.117 759.281
 109.117 c 764.563 109.117 767.336 112.391 767.336 115.906 c f*
  Q
Q
Q Q
showpage
%%Trailer
end restore
%%EOF
