<?xml version="1.0" encoding="utf-8"  standalone="no"?>
<!DOCTYPE svg PUBLIC "-//W3C//DTD SVG 1.1//EN"
 "http://www.w3.org/Graphics/SVG/1.1/DTD/svg11.dtd">
<svg 
 width="600" height="480"
 viewBox="0 0 600 480"
 xmlns="http://www.w3.org/2000/svg"
 xmlns:xlink="http://www.w3.org/1999/xlink"
>

<title>Gnuplot</title>
<desc>Produced by GNUPLOT 5.0 patchlevel 3 </desc>

<g id="gnuplot_canvas">

<rect x="0" y="0" width="600" height="480" fill="none"/>
<defs>

	<circle id='gpDot' r='0.5' stroke-width='0.5'/>
	<path id='gpPt0' stroke-width='0.222' stroke='currentColor' d='M-1,0 h2 M0,-1 v2'/>
	<path id='gpPt1' stroke-width='0.222' stroke='currentColor' d='M-1,-1 L1,1 M1,-1 L-1,1'/>
	<path id='gpPt2' stroke-width='0.222' stroke='currentColor' d='M-1,0 L1,0 M0,-1 L0,1 M-1,-1 L1,1 M-1,1 L1,-1'/>
	<rect id='gpPt3' stroke-width='0.222' stroke='currentColor' x='-1' y='-1' width='2' height='2'/>
	<rect id='gpPt4' stroke-width='0.222' stroke='currentColor' fill='currentColor' x='-1' y='-1' width='2' height='2'/>
	<circle id='gpPt5' stroke-width='0.222' stroke='currentColor' cx='0' cy='0' r='1'/>
	<use xlink:href='#gpPt5' id='gpPt6' fill='currentColor' stroke='none'/>
	<path id='gpPt7' stroke-width='0.222' stroke='currentColor' d='M0,-1.33 L-1.33,0.67 L1.33,0.67 z'/>
	<use xlink:href='#gpPt7' id='gpPt8' fill='currentColor' stroke='none'/>
	<use xlink:href='#gpPt7' id='gpPt9' stroke='currentColor' transform='rotate(180)'/>
	<use xlink:href='#gpPt9' id='gpPt10' fill='currentColor' stroke='none'/>
	<use xlink:href='#gpPt3' id='gpPt11' stroke='currentColor' transform='rotate(45)'/>
	<use xlink:href='#gpPt11' id='gpPt12' fill='currentColor' stroke='none'/>
	<path id='gpPt13' stroke-width='0.222' stroke='currentColor' d='M0,1.330 L1.265,0.411 L0.782,-1.067 L-0.782,-1.076 L-1.265,0.411 z'/>
	<use xlink:href='#gpPt13' id='gpPt14' fill='currentColor' stroke='none'/>
	<filter id='textbox' filterUnits='objectBoundingBox' x='0' y='0' height='1' width='1'>
	  <feFlood flood-color='white' flood-opacity='1' result='bgnd'/>
	  <feComposite in='SourceGraphic' in2='bgnd' operator='atop'/>
	</filter>
	<filter id='greybox' filterUnits='objectBoundingBox' x='0' y='0' height='1' width='1'>
	  <feFlood flood-color='lightgrey' flood-opacity='1' result='grey'/>
	  <feComposite in='SourceGraphic' in2='grey' operator='atop'/>
	</filter>
</defs>
<g fill="none" color="white" stroke="currentColor" stroke-width="1.00" stroke-linecap="butt" stroke-linejoin="miter">
</g>
<g fill="none" color="black" stroke="currentColor" stroke-width="1.00" stroke-linecap="butt" stroke-linejoin="miter">
	<path stroke='black'  d='M71.9,422.4 L80.9,422.4  '/>	<g transform="translate(63.6,426.9)" stroke="none" fill="black" font-family="sans-serif" font-size="12.00"  text-anchor="end">
		<text><tspan font-family="sans-serif" > 0</tspan></text>
	</g>
</g>
<g fill="none" color="black" stroke="currentColor" stroke-width="1.00" stroke-linecap="butt" stroke-linejoin="miter">
	<path stroke='black'  d='M71.9,348.7 L80.9,348.7  '/>	<g transform="translate(63.6,353.2)" stroke="none" fill="black" font-family="sans-serif" font-size="12.00"  text-anchor="end">
		<text><tspan font-family="sans-serif" > 20</tspan></text>
	</g>
</g>
<g fill="none" color="black" stroke="currentColor" stroke-width="1.00" stroke-linecap="butt" stroke-linejoin="miter">
	<path stroke='black'  d='M71.9,275.1 L80.9,275.1  '/>	<g transform="translate(63.6,279.6)" stroke="none" fill="black" font-family="sans-serif" font-size="12.00"  text-anchor="end">
		<text><tspan font-family="sans-serif" > 40</tspan></text>
	</g>
</g>
<g fill="none" color="black" stroke="currentColor" stroke-width="1.00" stroke-linecap="butt" stroke-linejoin="miter">
	<path stroke='black'  d='M71.9,201.4 L80.9,201.4  '/>	<g transform="translate(63.6,205.9)" stroke="none" fill="black" font-family="sans-serif" font-size="12.00"  text-anchor="end">
		<text><tspan font-family="sans-serif" > 60</tspan></text>
	</g>
</g>
<g fill="none" color="black" stroke="currentColor" stroke-width="1.00" stroke-linecap="butt" stroke-linejoin="miter">
	<path stroke='black'  d='M71.9,127.8 L80.9,127.8  '/>	<g transform="translate(63.6,132.3)" stroke="none" fill="black" font-family="sans-serif" font-size="12.00"  text-anchor="end">
		<text><tspan font-family="sans-serif" > 80</tspan></text>
	</g>
</g>
<g fill="none" color="black" stroke="currentColor" stroke-width="1.00" stroke-linecap="butt" stroke-linejoin="miter">
	<path stroke='black'  d='M71.9,54.1 L80.9,54.1  '/>	<g transform="translate(63.6,58.6)" stroke="none" fill="black" font-family="sans-serif" font-size="12.00"  text-anchor="end">
		<text><tspan font-family="sans-serif" > 100</tspan></text>
	</g>
</g>
<g fill="none" color="black" stroke="currentColor" stroke-width="1.00" stroke-linecap="butt" stroke-linejoin="miter">
	<path stroke='black'  d='M73.3,422.4 L73.3,413.4  '/>	<g transform="translate(73.3,444.9)" stroke="none" fill="black" font-family="sans-serif" font-size="12.00"  text-anchor="middle">
		<text><tspan font-family="sans-serif" >2010</tspan></text>
	</g>
</g>
<g fill="none" color="black" stroke="currentColor" stroke-width="1.00" stroke-linecap="butt" stroke-linejoin="miter">
	<path stroke='black'  d='M93.9,422.4 L93.9,417.9 M114.8,422.4 L114.8,417.9 M136.0,422.4 L136.0,417.9 M156.9,422.4 L156.9,413.4
		 '/>	<g transform="translate(156.9,444.9)" stroke="none" fill="black" font-family="sans-serif" font-size="12.00"  text-anchor="middle">
		<text><tspan font-family="sans-serif" >2011</tspan></text>
	</g>
</g>
<g fill="none" color="black" stroke="currentColor" stroke-width="1.00" stroke-linecap="butt" stroke-linejoin="miter">
	<path stroke='black'  d='M177.5,422.4 L177.5,417.9 M198.4,422.4 L198.4,417.9 M219.3,422.4 L219.3,417.9 M240.5,422.4 L240.5,413.4
		 '/>	<g transform="translate(240.5,444.9)" stroke="none" fill="black" font-family="sans-serif" font-size="12.00"  text-anchor="middle">
		<text><tspan font-family="sans-serif" >2012</tspan></text>
	</g>
</g>
<g fill="none" color="black" stroke="currentColor" stroke-width="1.00" stroke-linecap="butt" stroke-linejoin="miter">
	<path stroke='black'  d='M261.4,422.4 L261.4,417.9 M282.0,422.4 L282.0,417.9 M303.2,422.4 L303.2,417.9 M324.3,422.4 L324.3,413.4
		 '/>	<g transform="translate(324.3,444.9)" stroke="none" fill="black" font-family="sans-serif" font-size="12.00"  text-anchor="middle">
		<text><tspan font-family="sans-serif" >2013</tspan></text>
	</g>
</g>
<g fill="none" color="black" stroke="currentColor" stroke-width="1.00" stroke-linecap="butt" stroke-linejoin="miter">
	<path stroke='black'  d='M344.7,422.4 L344.7,417.9 M365.7,422.4 L365.7,417.9 M386.8,422.4 L386.8,417.9 M407.7,422.4 L407.7,413.4
		 '/>	<g transform="translate(407.7,444.9)" stroke="none" fill="black" font-family="sans-serif" font-size="12.00"  text-anchor="middle">
		<text><tspan font-family="sans-serif" >2014</tspan></text>
	</g>
</g>
<g fill="none" color="black" stroke="currentColor" stroke-width="1.00" stroke-linecap="butt" stroke-linejoin="miter">
	<path stroke='black'  d='M428.3,422.4 L428.3,417.9 M449.3,422.4 L449.3,417.9 M470.4,422.4 L470.4,417.9 M491.3,422.4 L491.3,413.4
		 '/>	<g transform="translate(491.3,444.9)" stroke="none" fill="black" font-family="sans-serif" font-size="12.00"  text-anchor="middle">
		<text><tspan font-family="sans-serif" >2015</tspan></text>
	</g>
</g>
<g fill="none" color="black" stroke="currentColor" stroke-width="1.00" stroke-linecap="butt" stroke-linejoin="miter">
	<path stroke='black'  d='M512.0,422.4 L512.0,417.9 M532.9,422.4 L532.9,417.9 M553.8,422.4 L553.8,417.9 M574.9,422.4 L574.9,413.4
		 '/>	<g transform="translate(574.9,444.9)" stroke="none" fill="black" font-family="sans-serif" font-size="12.00"  text-anchor="middle">
		<text><tspan font-family="sans-serif" >2016</tspan></text>
	</g>
</g>
<g fill="none" color="black" stroke="currentColor" stroke-width="1.00" stroke-linecap="butt" stroke-linejoin="miter">
</g>
<g fill="none" color="black" stroke="currentColor" stroke-width="1.00" stroke-linecap="butt" stroke-linejoin="miter">
	<path stroke='black'  d='M71.9,54.1 L71.9,422.4 L575.0,422.4 L575.0,54.1 L71.9,54.1 Z  '/></g>
<g fill="none" color="black" stroke="currentColor" stroke-width="1.00" stroke-linecap="butt" stroke-linejoin="miter">
	<g transform="translate(17.6,238.3) rotate(270)" stroke="none" fill="black" font-family="sans-serif" font-size="12.00"  text-anchor="middle">
		<text><tspan font-family="sans-serif" >Interesse (Prozent)</tspan></text>
	</g>
</g>
<g fill="none" color="black" stroke="currentColor" stroke-width="1.00" stroke-linecap="butt" stroke-linejoin="miter">
	<g transform="translate(323.4,471.9)" stroke="none" fill="black" font-family="sans-serif" font-size="12.00"  text-anchor="middle">
		<text><tspan font-family="sans-serif" >Zeit (Jahr)</tspan></text>
	</g>
</g>
<g fill="none" color="black" stroke="currentColor" stroke-width="1.00" stroke-linecap="butt" stroke-linejoin="miter">
	<g transform="translate(323.4,31.6)" stroke="none" fill="black" font-family="sans-serif" font-size="12.00"  text-anchor="middle">
		<text><tspan font-family="sans-serif"  font-weight="bold" >Websuche-Interesse von Apache Spark und Apache Hadoop</tspan></text>
	</g>
</g>
<g fill="none" color="black" stroke="currentColor" stroke-width="1.00" stroke-linecap="butt" stroke-linejoin="miter">
	<path stroke='black'  d='M80.2,99.1 L80.2,63.1 L246.9,63.1 L246.9,99.1 L80.2,99.1 Z  '/></g>
	<g id="gnuplot_plot_1" ><title>Apache Spark</title>
<g fill="none" color="black" stroke="currentColor" stroke-width="1.00" stroke-linecap="butt" stroke-linejoin="miter">
	<g transform="translate(188.1,76.6)" stroke="none" fill="black" font-family="sans-serif" font-size="12.00"  text-anchor="end">
		<text><tspan font-family="sans-serif" >Apache Spark</tspan></text>
	</g>
</g>
<g fill="none" color="black" stroke="currentColor" stroke-width="1.00" stroke-linecap="butt" stroke-linejoin="miter">
	<path stroke='rgb(148,   0, 211)'  d='M196.4,72.1 L238.6,72.1 M71.9,418.7 L73.5,418.7 L75.1,418.7 L76.7,418.7 L78.3,418.7 L79.9,418.7
		L81.5,418.7 L83.1,418.7 L84.7,418.7 L86.3,418.7 L87.9,418.7 L89.5,418.7 L91.1,418.7 L92.7,418.7
		L94.3,418.7 L95.9,418.7 L97.5,418.7 L99.1,418.7 L100.7,415.0 L102.3,418.7 L103.9,418.7 L105.5,418.7
		L107.1,415.0 L108.8,418.7 L110.4,418.7 L112.0,418.7 L113.6,418.7 L115.2,418.7 L116.8,418.7 L118.4,418.7
		L120.0,418.7 L121.6,418.7 L123.2,418.7 L124.8,418.7 L126.4,418.7 L128.0,418.7 L129.6,418.7 L131.2,418.7
		L132.8,418.7 L134.4,418.7 L136.0,418.7 L137.6,418.7 L139.2,418.7 L140.8,418.7 L142.4,418.7 L144.0,418.7
		L145.6,418.7 L147.2,418.7 L148.8,418.7 L150.4,415.0 L152.0,418.7 L153.6,418.7 L155.2,418.7 L156.8,418.7
		L158.4,418.7 L160.0,418.7 L161.6,418.7 L163.2,418.7 L164.8,418.7 L166.4,418.7 L168.0,422.4 L169.6,422.4
		L171.2,418.7 L172.8,422.4 L174.4,422.4 L176.0,418.7 L177.6,418.7 L179.2,422.4 L180.9,422.4 L182.5,418.7
		L184.1,422.4 L185.7,422.4 L187.3,418.7 L188.9,418.7 L190.5,418.7 L192.1,418.7 L193.7,418.7 L195.3,418.7
		L196.9,418.7 L198.5,418.7 L200.1,422.4 L201.7,422.4 L203.3,418.7 L204.9,418.7 L206.5,418.7 L208.1,415.0
		L209.7,418.7 L211.3,418.7 L212.9,418.7 L214.5,418.7 L216.1,418.7 L217.7,418.7 L219.3,422.4 L220.9,418.7
		L222.5,418.7 L224.1,418.7 L225.7,418.7 L227.3,418.7 L228.9,418.7 L230.5,418.7 L232.1,418.7 L233.7,422.4
		L235.3,422.4 L236.9,418.7 L238.5,418.7 L240.1,415.0 L241.7,418.7 L243.3,418.7 L244.9,418.7 L246.5,422.4
		L248.1,418.7 L249.7,422.4 L251.3,418.7 L253.0,418.7 L254.6,418.7 L256.2,418.7 L257.8,418.7 L259.4,422.4
		L261.0,422.4 L262.6,418.7 L264.2,422.4 L265.8,418.7 L267.4,418.7 L269.0,422.4 L270.6,418.7 L272.2,422.4
		L273.8,418.7 L275.4,418.7 L277.0,418.7 L278.6,422.4 L280.2,418.7 L281.8,418.7 L283.4,422.4 L285.0,422.4
		L286.6,418.7 L288.2,422.4 L289.8,418.7 L291.4,418.7 L293.0,418.7 L294.6,418.7 L296.2,418.7 L297.8,418.7
		L299.4,418.7 L301.0,418.7 L302.6,418.7 L304.2,418.7 L305.8,418.7 L307.4,418.7 L309.0,418.7 L310.6,418.7
		L312.2,418.7 L313.8,418.7 L315.4,418.7 L317.0,418.7 L318.6,418.7 L320.2,418.7 L321.8,418.7 L323.5,418.7
		L325.1,418.7 L326.7,422.4 L328.3,418.7 L329.9,422.4 L331.5,418.7 L333.1,418.7 L334.7,422.4 L336.3,418.7
		L337.9,422.4 L339.5,418.7 L341.1,422.4 L342.7,418.7 L344.3,418.7 L345.9,422.4 L347.5,418.7 L349.1,418.7
		L350.7,418.7 L352.3,418.7 L353.9,418.7 L355.5,418.7 L357.1,418.7 L358.7,418.7 L360.3,418.7 L361.9,422.4
		L363.5,418.7 L365.1,418.7 L366.7,415.0 L368.3,418.7 L369.9,418.7 L371.5,418.7 L373.1,418.7 L374.7,418.7
		L376.3,418.7 L377.9,418.7 L379.5,415.0 L381.1,415.0 L382.7,415.0 L384.3,415.0 L385.9,415.0 L387.5,411.4
		L389.1,411.4 L390.7,407.7 L392.3,411.4 L393.9,407.7 L395.6,407.7 L397.2,400.3 L398.8,404.0 L400.4,407.7
		L402.0,404.0 L403.6,407.7 L405.2,407.7 L406.8,404.0 L408.4,400.3 L410.0,400.3 L411.6,400.3 L413.2,385.6
		L414.8,396.6 L416.4,385.6 L418.0,392.9 L419.6,378.2 L421.2,385.6 L422.8,359.8 L424.4,374.5 L426.0,370.8
		L427.6,370.8 L429.2,370.8 L430.8,363.5 L432.4,370.8 L434.0,370.8 L435.6,367.2 L437.2,363.5 L438.8,356.1
		L440.4,363.5 L442.0,359.8 L443.6,334.0 L445.2,356.1 L446.8,345.1 L448.4,359.8 L450.0,323.0 L451.6,330.3
		L453.2,341.4 L454.8,330.3 L456.4,334.0 L458.0,337.7 L459.6,337.7 L461.2,337.7 L462.8,323.0 L464.4,330.3
		L466.0,323.0 L467.7,330.3 L469.3,326.6 L470.9,334.0 L472.5,330.3 L474.1,311.9 L475.7,304.5 L477.3,308.2
		L478.9,319.3 L480.5,315.6 L482.1,286.1 L483.7,304.5 L485.3,278.8 L486.9,297.2 L488.5,308.2 L490.1,337.7
		L491.7,345.1 L493.3,300.9 L494.9,278.8 L496.5,282.4 L498.1,271.4 L499.7,271.4 L501.3,286.1 L502.9,282.4
		L504.5,271.4 L506.1,275.1 L507.7,267.7 L509.3,249.3 L510.9,260.3 L512.5,253.0 L514.1,249.3 L515.7,260.3
		L517.3,253.0 L518.9,253.0 L520.5,260.3 L522.1,230.9 L523.7,230.9 L525.3,238.3 L526.9,208.8 L528.5,208.8
		L530.1,54.1 L531.7,164.6 L533.3,197.7 L534.9,208.8 L536.5,190.4 L538.1,219.8 L539.8,230.9 L541.4,219.8
		L543.0,223.5 L544.6,216.2 L546.2,216.2 L547.8,223.5 L549.4,216.2 L551.0,216.2 L552.6,208.8 L554.2,216.2
		L555.8,227.2 L557.4,227.2 L559.0,223.5 L560.6,197.7 L562.2,190.4 L563.8,219.8 L565.4,201.4 L567.0,245.6
		L568.6,227.2 L570.2,227.2 L571.8,219.8 L573.4,264.0 L575.0,300.9  '/></g>
	</g>
	<g id="gnuplot_plot_2" ><title>Apache Hadoop</title>
<g fill="none" color="black" stroke="currentColor" stroke-width="1.00" stroke-linecap="butt" stroke-linejoin="miter">
	<g transform="translate(188.1,94.6)" stroke="none" fill="black" font-family="sans-serif" font-size="12.00"  text-anchor="end">
		<text><tspan font-family="sans-serif" >Apache Hadoop</tspan></text>
	</g>
</g>
<g fill="none" color="black" stroke="currentColor" stroke-width="1.00" stroke-linecap="butt" stroke-linejoin="miter">
	<path stroke='rgb(  0, 158, 115)'  d='M196.4,90.1 L238.6,90.1 M71.9,396.6 L73.5,411.4 L75.1,404.0 L76.7,396.6 L78.3,396.6 L79.9,404.0
		L81.5,400.3 L83.1,415.0 L84.7,400.3 L86.3,404.0 L87.9,400.3 L89.5,396.6 L91.1,404.0 L92.7,407.7
		L94.3,396.6 L95.9,411.4 L97.5,396.6 L99.1,404.0 L100.7,404.0 L102.3,404.0 L103.9,389.3 L105.5,407.7
		L107.1,407.7 L108.8,404.0 L110.4,400.3 L112.0,400.3 L113.6,400.3 L115.2,392.9 L116.8,396.6 L118.4,404.0
		L120.0,400.3 L121.6,400.3 L123.2,400.3 L124.8,396.6 L126.4,400.3 L128.0,392.9 L129.6,396.6 L131.2,396.6
		L132.8,400.3 L134.4,404.0 L136.0,378.2 L137.6,396.6 L139.2,396.6 L140.8,392.9 L142.4,400.3 L144.0,400.3
		L145.6,404.0 L147.2,392.9 L148.8,411.4 L150.4,400.3 L152.0,404.0 L153.6,392.9 L155.2,392.9 L156.8,400.3
		L158.4,404.0 L160.0,392.9 L161.6,404.0 L163.2,396.6 L164.8,385.6 L166.4,385.6 L168.0,363.5 L169.6,389.3
		L171.2,396.6 L172.8,392.9 L174.4,392.9 L176.0,374.5 L177.6,374.5 L179.2,392.9 L180.9,381.9 L182.5,389.3
		L184.1,389.3 L185.7,396.6 L187.3,381.9 L188.9,392.9 L190.5,381.9 L192.1,385.6 L193.7,389.3 L195.3,374.5
		L196.9,396.6 L198.5,370.8 L200.1,381.9 L201.7,378.2 L203.3,381.9 L204.9,389.3 L206.5,378.2 L208.1,389.3
		L209.7,389.3 L211.3,385.6 L212.9,381.9 L214.5,385.6 L216.1,389.3 L217.7,389.3 L219.3,381.9 L220.9,385.6
		L222.5,374.5 L224.1,378.2 L225.7,385.6 L227.3,381.9 L228.9,363.5 L230.5,370.8 L232.1,374.5 L233.7,378.2
		L235.3,378.2 L236.9,370.8 L238.5,381.9 L240.1,385.6 L241.7,359.8 L243.3,359.8 L244.9,374.5 L246.5,374.5
		L248.1,378.2 L249.7,370.8 L251.3,367.2 L253.0,378.2 L254.6,359.8 L256.2,370.8 L257.8,363.5 L259.4,359.8
		L261.0,363.5 L262.6,367.2 L264.2,381.9 L265.8,374.5 L267.4,363.5 L269.0,381.9 L270.6,363.5 L272.2,374.5
		L273.8,374.5 L275.4,378.2 L277.0,363.5 L278.6,337.7 L280.2,363.5 L281.8,363.5 L283.4,381.9 L285.0,367.2
		L286.6,359.8 L288.2,363.5 L289.8,374.5 L291.4,370.8 L293.0,363.5 L294.6,359.8 L296.2,363.5 L297.8,370.8
		L299.4,356.1 L301.0,370.8 L302.6,352.4 L304.2,370.8 L305.8,359.8 L307.4,370.8 L309.0,352.4 L310.6,367.2
		L312.2,359.8 L313.8,367.2 L315.4,359.8 L317.0,363.5 L318.6,356.1 L320.2,363.5 L321.8,359.8 L323.5,370.8
		L325.1,374.5 L326.7,363.5 L328.3,363.5 L329.9,363.5 L331.5,363.5 L333.1,359.8 L334.7,356.1 L336.3,352.4
		L337.9,330.3 L339.5,345.1 L341.1,345.1 L342.7,334.0 L344.3,341.4 L345.9,348.7 L347.5,345.1 L349.1,348.7
		L350.7,341.4 L352.3,356.1 L353.9,359.8 L355.5,348.7 L357.1,352.4 L358.7,359.8 L360.3,352.4 L361.9,345.1
		L363.5,352.4 L365.1,341.4 L366.7,348.7 L368.3,345.1 L369.9,337.7 L371.5,348.7 L373.1,345.1 L374.7,356.1
		L376.3,356.1 L377.9,352.4 L379.5,352.4 L381.1,352.4 L382.7,337.7 L384.3,352.4 L385.9,345.1 L387.5,337.7
		L389.1,352.4 L390.7,341.4 L392.3,345.1 L393.9,337.7 L395.6,337.7 L397.2,334.0 L398.8,341.4 L400.4,345.1
		L402.0,348.7 L403.6,334.0 L405.2,341.4 L406.8,359.8 L408.4,363.5 L410.0,341.4 L411.6,341.4 L413.2,330.3
		L414.8,348.7 L416.4,341.4 L418.0,330.3 L419.6,330.3 L421.2,330.3 L422.8,330.3 L424.4,326.6 L426.0,330.3
		L427.6,323.0 L429.2,330.3 L430.8,326.6 L432.4,330.3 L434.0,326.6 L435.6,334.0 L437.2,330.3 L438.8,337.7
		L440.4,334.0 L442.0,334.0 L443.6,323.0 L445.2,341.4 L446.8,337.7 L448.4,337.7 L450.0,330.3 L451.6,326.6
		L453.2,323.0 L454.8,334.0 L456.4,341.4 L458.0,334.0 L459.6,337.7 L461.2,334.0 L462.8,330.3 L464.4,330.3
		L466.0,323.0 L467.7,319.3 L469.3,330.3 L470.9,341.4 L472.5,330.3 L474.1,334.0 L475.7,334.0 L477.3,323.0
		L478.9,334.0 L480.5,326.6 L482.1,323.0 L483.7,345.1 L485.3,330.3 L486.9,323.0 L488.5,330.3 L490.1,356.1
		L491.7,359.8 L493.3,341.4 L494.9,326.6 L496.5,326.6 L498.1,315.6 L499.7,326.6 L501.3,330.3 L502.9,319.3
		L504.5,330.3 L506.1,326.6 L507.7,319.3 L509.3,326.6 L510.9,315.6 L512.5,326.6 L514.1,319.3 L515.7,308.2
		L517.3,308.2 L518.9,330.3 L520.5,315.6 L522.1,326.6 L523.7,315.6 L525.3,337.7 L526.9,319.3 L528.5,304.5
		L530.1,319.3 L531.7,315.6 L533.3,323.0 L534.9,323.0 L536.5,319.3 L538.1,319.3 L539.8,330.3 L541.4,326.6
		L543.0,326.6 L544.6,323.0 L546.2,319.3 L547.8,315.6 L549.4,319.3 L551.0,319.3 L552.6,326.6 L554.2,323.0
		L555.8,311.9 L557.4,319.3 L559.0,326.6 L560.6,319.3 L562.2,334.0 L563.8,334.0 L565.4,334.0 L567.0,334.0
		L568.6,326.6 L570.2,330.3 L571.8,323.0 L573.4,345.1 L575.0,359.8  '/></g>
	</g>
<g fill="none" color="white" stroke="rgb(  0, 158, 115)" stroke-width="2.00" stroke-linecap="butt" stroke-linejoin="miter">
</g>
<g fill="none" color="black" stroke="currentColor" stroke-width="2.00" stroke-linecap="butt" stroke-linejoin="miter">
</g>
<g fill="none" color="black" stroke="black" stroke-width="1.00" stroke-linecap="butt" stroke-linejoin="miter">
</g>
<g fill="none" color="black" stroke="currentColor" stroke-width="1.00" stroke-linecap="butt" stroke-linejoin="miter">
	<path stroke='black'  d='M71.9,54.1 L71.9,422.4 L575.0,422.4 L575.0,54.1 L71.9,54.1 Z  '/></g>
<g fill="none" color="black" stroke="currentColor" stroke-width="1.00" stroke-linecap="butt" stroke-linejoin="miter">
</g>
</g>
</svg>

